// Jest Snapshot v1, https://goo.gl/fbAQLP

exports[`connectServer request should pass correct parameters to fetch API 1`] = `
Array [
  Array [
    "http://test/api/v1/connect",
    Object {
      "body": "{\\"ip\\":\\"1.1.1.1\\",\\"username\\":\\"user\\",\\"password\\":\\"1234\\"}",
      "headers": Object {
        "Content-Type": "application/json",
      },
      "method": "POST",
    },
  ],
]
`;

exports[`connectServer request should return state with credentialRequired=true when request failed with 401 1`] = `
"Snapshot Diff:
- First value
+ Second value

  Object {
-   \\"credentialRequired\\": false,
+   \\"credentialRequired\\": true,
    \\"failure\\": false,
    \\"loading\\": false,
    \\"success\\": false,
  }"
`;

exports[`connectServer request should return state with failure=true when network error 1`] = `
"Snapshot Diff:
- First value
+ Second value

  Object {
    \\"credentialRequired\\": false,
-   \\"failure\\": false,
+   \\"failure\\": true,
    \\"loading\\": false,
    \\"success\\": false,
  }"
`;

exports[`connectServer request should return state with failure=true when request failed with 40x 1`] = `
"Snapshot Diff:
- First value
+ Second value

  Object {
    \\"credentialRequired\\": false,
-   \\"failure\\": false,
+   \\"failure\\": true,
    \\"loading\\": false,
    \\"success\\": false,
  }"
`;

exports[`connectServer request should return state with loading=true when request started 1`] = `
"Snapshot Diff:
- First value
+ Second value

  Object {
    \\"credentialRequired\\": false,
    \\"failure\\": false,
-   \\"loading\\": false,
+   \\"loading\\": true,
    \\"success\\": false,
  }"
`;

exports[`connectServer request should return state with success=true and serverUUID when request succeed with HTTP 201 1`] = `
"Snapshot Diff:
- First value
+ Second value

  Object {
    \\"credentialRequired\\": false,
    \\"failure\\": false,
    \\"loading\\": false,
-   \\"success\\": false,
+   \\"serverUUID\\": \\"123e4567-e89b-12d3-a456-426652340000\\",
+   \\"success\\": true,
  }"
`;

exports[`connectServer request should return the initial state with no action 1`] = `
Object {
  "credentialRequired": false,
  "failure": false,
  "loading": false,
  "success": false,
}
`;
